{
  "EDITOR_STATE": {
    "allProjectFiles": {
      "10d9ee3f-2253-4ee5-8261-51c7106822e5": {
        "id": "10d9ee3f-2253-4ee5-8261-51c7106822e5",
        "parent": null,
        "name": "induSep17209.js",
        "type": "JS_LAMBDA",
        "isDirectory": false,
        "children": [],
        "isRemovable": true,
        "filePath": "induSep17209.js",
        "cursor": {
          "lineNumber": 1,
          "column": 1
        },
        "config": {
          "runtime": "nodejs14.x",
          "handler": "handler",
          "timeout": 60,
          "memory": 128,
          "layers": [],
          "name": "induSep17209"
        },
        "triggers": [
          {
            "resourceName": "apigmyapindunilddsindusep17210any",
            "config": {}
          }
        ],
        "lastUpdated": 1631868001245
      },
      "5bd5cdfe-911a-4b05-a170-e3a9650cafdd": {
        "id": "5bd5cdfe-911a-4b05-a170-e3a9650cafdd",
        "parent": null,
        "name": "package.json",
        "type": "JSON_FILE",
        "isDirectory": false,
        "children": [],
        "isRemovable": true,
        "filePath": "package.json"
      }
    },
    "openFiles": [
      "10d9ee3f-2253-4ee5-8261-51c7106822e5"
    ],
    "currentFileId": "10d9ee3f-2253-4ee5-8261-51c7106822e5",
    "resources": {
      "apigmyapindunilddsindusep17210any": {
        "name": "apigmyapindunilddsindusep17210any",
        "type": "API_GATEWAY",
        "config": {
          "apiType": 1,
          "apiMode": 1,
          "apiName": "myapindunil",
          "apiId": "8hifidrt5c",
          "endpointType": "REGIONAL",
          "rootResourceId": "5a0303edae",
          "existingResources": {
            "/": "5a0303edae"
          },
          "resourceMode": 0,
          "resourceName": "d/ds/indu/sep17/210",
          "resourcePath": "/d/ds/indu/sep17/210",
          "restMethod": "ANY",
          "proxyIntegration": false,
          "enableCORS": false,
          "stageMode": 0,
          "stageName": "test",
          "mode": 1
        }
      },
      "cognitoinduSep17": {
        "name": "cognitoinduSep17",
        "type": "CognitoIdentityServiceProvider",
        "config": {
          "mode": 0,
          "name": "induSep17",
          "userPool": {
            "Name": "induSep17",
            "isNew": true,
            "AutoVerifiedAttributes": [],
            "AliasAttributes": [],
            "UsernameAttributes": [],
            "Policies": {
              "PasswordPolicy": {
                "MinimumLength": 8,
                "RequireUppercase": true,
                "RequireLowercase": true,
                "RequireNumbers": true,
                "RequireSymbols": true
              }
            },
            "SchemaAttributes": [
              {
                "AttributeDataType": "String",
                "DeveloperOnlyAttribute": false,
                "Mutable": false,
                "Name": "sub",
                "Required": true
              },
              {
                "AttributeDataType": "String",
                "DeveloperOnlyAttribute": false,
                "Mutable": true,
                "Name": "address",
                "Required": false
              },
              {
                "AttributeDataType": "String",
                "DeveloperOnlyAttribute": false,
                "Mutable": true,
                "Name": "birthdate",
                "Required": false
              },
              {
                "AttributeDataType": "String",
                "DeveloperOnlyAttribute": false,
                "Mutable": true,
                "Name": "email",
                "Required": false
              },
              {
                "AttributeDataType": "String",
                "DeveloperOnlyAttribute": false,
                "Mutable": true,
                "Name": "family_name",
                "Required": false
              },
              {
                "AttributeDataType": "String",
                "DeveloperOnlyAttribute": false,
                "Mutable": true,
                "Name": "gender",
                "Required": false
              },
              {
                "AttributeDataType": "String",
                "DeveloperOnlyAttribute": false,
                "Mutable": true,
                "Name": "given_name",
                "Required": false
              },
              {
                "AttributeDataType": "String",
                "DeveloperOnlyAttribute": false,
                "Mutable": true,
                "Name": "locale",
                "Required": false
              },
              {
                "AttributeDataType": "String",
                "DeveloperOnlyAttribute": false,
                "Mutable": true,
                "Name": "middle_name",
                "Required": false
              },
              {
                "AttributeDataType": "String",
                "DeveloperOnlyAttribute": false,
                "Mutable": true,
                "Name": "name",
                "Required": false
              },
              {
                "AttributeDataType": "String",
                "DeveloperOnlyAttribute": false,
                "Mutable": true,
                "Name": "nickname",
                "Required": false
              },
              {
                "AttributeDataType": "String",
                "DeveloperOnlyAttribute": false,
                "Mutable": true,
                "Name": "phone_number",
                "Required": false
              },
              {
                "AttributeDataType": "String",
                "DeveloperOnlyAttribute": false,
                "Mutable": true,
                "Name": "picture",
                "Required": false
              },
              {
                "AttributeDataType": "String",
                "DeveloperOnlyAttribute": false,
                "Mutable": true,
                "Name": "preferred_username",
                "Required": false
              },
              {
                "AttributeDataType": "String",
                "DeveloperOnlyAttribute": false,
                "Mutable": true,
                "Name": "profile",
                "Required": false
              },
              {
                "AttributeDataType": "String",
                "DeveloperOnlyAttribute": false,
                "Mutable": true,
                "Name": "timezone",
                "Required": false
              },
              {
                "AttributeDataType": "Number",
                "DeveloperOnlyAttribute": false,
                "Mutable": true,
                "Name": "updated_at",
                "Required": false
              },
              {
                "AttributeDataType": "String",
                "DeveloperOnlyAttribute": false,
                "Mutable": true,
                "Name": "website",
                "Required": false
              }
            ],
            "AdminCreateUserConfig": {
              "AllowAdminCreateUserOnly": false,
              "UnusedAccountValidityDays": 7,
              "InviteMessageTemplate": {}
            }
          }
        }
      }
    },
    "customTemplate": {
      "syntax": "JSON",
      "overrideDefault": false,
      "dialect": null,
      "definitions": null
    },
    "envVariables": [
      {
        "lambdaId": "all",
        "varKey": "SIGMA_AWS_ACC_ID",
        "varValue": null,
        "shouldPersist": false,
        "displayOnly": false,
        "editable": false
      }
    ],
    "packageJSON": {
      "dependencies": {
        "aws-sdk": {
          "name": "aws-sdk",
          "language": "nodejs",
          "version": "2.817.0",
          "dev": true,
          "notRemovable": false
        }
      }
    }
  },
  "PROJECT_META": {
    "sigmaVersion": "1.9.4",
    "projectName": "induSep17209",
    "projectDescription": "",
    "projectVersion": "1.0.0",
    "projectRegion": "us-east-1",
    "platform": "AWS",
    "language": "nodejs",
    "platformRegions": {},
    "lastSave": 1631868073416
  },
  "VCS_STATE": {
    "provider": "GitLab",
    "repo": {
      "name": "indusep17209",
      "url": "https://gitlab.com/indunilSigma/indusep17209"
    }
  }
}